Assignment5
…
##  ggplot2 3.3.0      purrr   0.3.4
##  tibble  3.0.1      dplyr   0.8.5
##  tidyr   1.0.2      stringr 1.4.0
##  readr   1.3.1      forcats 0.5.0

##  Conflicts  tidyverse_conflicts() 
## x dplyr::filter() masks stats::filter()
## x dplyr::lag()    masks stats::lag()

library(ggplot2)
buildings <- read_excel('tallestbuildings.xlsx')
buildings

## # A tibble: 100 x 9
##     Rank `Building Name` City  `Height (m)` `Height (ft)` Floors Completed
##    <dbl> <chr>           <chr>        <dbl>         <dbl>  <dbl>     <dbl>
##  1     1 Burj Khalifa    Duba         828           2717    163      2010
##  2     2 Shanghai Tower  Shan         632           2073    128      2015
##  3     3 Makkah Royal C Mecc         601           1972    120      2012
##  4     4 One World Trad New          541.          1776     94      2014
##  5     5 TAIPEI 101      Taip         508           1667    101      2004
##  6     6 Shanghai World Shan         492           1614    101      2008
##  7     7 International  Hong         484           1588    108      2010
##  8     8 Petronas Twin  Kual         452.          1483     88      1998
##  9     8 Petronas Twin  Kual         452.          1483     88      1998
## 10    10 Zifeng Tower    Nanj         450           1476     66      2010
## #  with 90 more rows, and 2 more variables: Material <chr>, Use <chr>
…
## 
## Attaching package: 'magrittr'

## The following object is masked from 'package:purrr':
## 
##     set_names

## The following object is masked from 'package:tidyr':
## 
##     extract

names(buildings) %<>% normVarNames()
buildings

## # A tibble: 100 x 9
##     rank building_name  city  height_m height_ft floors completed material use  
##    <dbl> <chr>          <chr>    <dbl>     <dbl>  <dbl>     <dbl> <chr>    <chr>
##  1     1 Burj Khalifa   Duba     828       2717    163      2010 steel/c offi
##  2     2 Shanghai Tower Shan     632       2073    128      2015 composi hote
##  3     3 Makkah Royal  Mecc     601       1972    120      2012 steel/c othe
##  4     4 One World Tra New      541.      1776     94      2014 composi offi
##  5     5 TAIPEI 101     Taip     508       1667    101      2004 composi offi
##  6     6 Shanghai Worl Shan     492       1614    101      2008 composi hote
##  7     7 International Hong     484       1588    108      2010 composi hote
##  8     8 Petronas Twin Kual     452.      1483     88      1998 composi offi
##  9     8 Petronas Twin Kual     452.      1483     88      1998 composi offi
## 10    10 Zifeng Tower   Nanj     450       1476     66      2010 composi hote
## #  with 90 more rows

Group the buildings by City in descending order

Citycounts=buildings%>%
  group_by(city)%>%
  summarise(number=length(city))
arrange(Citycounts, desc(number))

## # A tibble: 38 x 2
##    city               number
##    <chr>               <int>
##  1 Dubai(AE)             18
##  2 New York City(US)      7
##  3 Chicago(US)            6
##  4 Guangzhou(CN)          6
##  5 Hong Kong(CN)          6
##  6 Abu Dhabi(AE)          4
##  7 Moscow(RU)             4
##  8 Shanghai(CN)           4
##  9 Shenzhen(CN)           4
## 10 Kuala Lumpur(MY)       3
## #  with 28 more rows
…
